m/z, I, S/N, Res.
92.1424542, 1086353, 1.2, 3216024
92.1425939, 1127525, 1.3, 3379046
92.1426562, 877870, 0.5, 4972418
92.1427692, 940346, 0.7, 3471374
92.1428894, 1088311, 1.2, 4041596
92.1429489, 1016566, 1.0, 4032226
92.1431218, 991888, 0.9, 4450592
92.1433090, 854221, 0.4, 4898886
92.1437313, 1202220, 1.6, 2805368
92.1438177, 740388, 0.0, 10567655
92.1438741, 1051377, 1.1, 3396222
92.1439939, 889410, 0.5, 4769417
